…
  rename(country=Country.Name,series=Series,yr2000=YR2000,yr2001=YR2001,yr2002=YR2002,yr2003=YR2003,yr2004=YR2004,yr2005=YR2005,yr2006=YR2006,yr2007=YR2007,yr2008=YR2008,yr2009=YR2009,yr2010=YR2010,yr2011=YR2011,yr2012=YR2012,yr2013=YR2013,yr2014=YR2014,yr2015=YR2015,yr2016=YR2016,yr2017=YR2017,yr2018=YR2018) %>%
  mutate_at(c("yr2000","yr2001","yr2002","yr2003","yr2004","yr2005","yr2006","yr2007","yr2008","yr2009","yr2010","yr2011","yr2012","yr2013","yr2014","yr2015","yr2016","yr2017","yr2018"),as.double) %>%
  replace(is.na(.),0) %>%
  distinct() %>%
  mutate(across("series",str_replace, fixed("School age population, tertiary education, both sexes (number)"),"sa_pop")) %>%
  mutate(across("series",str_replace, fixed("School age population, tertiary education, female (number)"),"sa_pop_f")) %>%
  mutate(across("series",str_replace, fixed("School age population, tertiary education, male (number)"),"sa_pop_m")) %>%
  mutate(across("series",str_replace, fixed("Gross enrolment ratio for tertiary education, both sexes (%)"),"enr_rat")) %>%
  mutate(across("series",str_replace, fixed("Gross enrolment ratio for tertiary education, female (%)"),"enr_rat_f")) %>%
  mutate(across("series",str_replace, fixed("Gross enrolment ratio for tertiary education, male (%)"),"enr_rat_m")) %>%
  pivot_longer(cols=starts_with("yr"), names_to="year",names_prefix="yr",values_to="value",values_drop_na=TRUE)
us_enrollment_data
```

    ## # A tibble: 114 x 4
    ##    country       series year     value
    ##    <chr>         <chr>  <chr>    <dbl>
    ##  1 United States sa_pop 2000  19472577
    ##  2 United States sa_pop 2001  19964936
    ##  3 United States sa_pop 2002  20444718
    ##  4 United States sa_pop 2003  20724253
    ##  5 United States sa_pop 2004  20824783
    ##  6 United States sa_pop 2005  20941658
    ##  7 United States sa_pop 2006  21049542
    ##  8 United States sa_pop 2007  21215121
    ##  9 United States sa_pop 2008  21465844
    ## 10 United States sa_pop 2009  21801392
    ## # … with 104 more rows
…
