…
``` r
library(ggpubr)
```

## data loading

loading in the US enrollment data from the `parent-dataset` folder

``` r
as_tibble(read.csv("/Users/kenjinchang/github/projected-impact-model/parent-datasets/enrollment_projections.csv"))
```

    ## # A tibble: 73 × 20
    ##    Table.318…¹ X     X.1   X.2   X.3   X.4   X.5   X.6   X.7   X.8   X.9   X.10 
    ##    <chr>       <chr> <chr> <chr> <chr> <chr> <chr> <chr> <chr> <chr> <chr> <chr>
    ##  1 Year        "Ass… "Ass… "Ass… "Ass… Bach… "Bac… Bach… "Bac… Bach… "Bac… Bach…
    ##  2 Year        "Tot… "Mal… "Fem… "Per… Total "Tot… Males "Mal… Fema… "Fem… Perc…
    ##  3 1           "2"   "3"   "4"   "5"   6     "6"   7     "7"   8     "8"   9    
    ##  4 1869-70     ""    ""    ""    ""    9371… "\\2… 7993… "\\2… 1378… "\\2… 14.70
    ##  5 1879-80     ""    ""    ""    ""    1289… "\\2… 1041… "\\2… 2485… "\\2… 19.30
    ##  6 1889-90     ""    ""    ""    ""    1553… "\\2… 1285… "\\2… 2682… "\\2… 17.30
    ##  7 1899-1900   ""    ""    ""    ""    2741… "\\2… 2217… "\\2… 5237… "\\2… 19.10
    ##  8 1909-10     ""    ""    ""    ""    3719… "\\2… 2876… "\\2… 8437… "\\2… 22.70
    ##  9 1919-20     ""    ""    ""    ""    4862… "\\2… 3198… "\\2… 1664… "\\2… 34.20
    ## 10 1929-30     ""    ""    ""    ""    1224… "\\2… 7361… "\\2… 4886… "\\2… 39.90
    ## # … with 63 more rows, 8 more variables: X.11 <chr>, X.12 <chr>, X.13 <chr>,
    ## #   X.14 <chr>, X.15 <chr>, X.16 <chr>, X.17 <chr>, X.18 <chr>, and abbreviated
    ## #   variable name
    ## #   ¹​Table.318.10..Degrees.conferred.by.postsecondary.institutions..by.level.of.degree.and.sex.of.student..Selected.academic.years..1869.70.through.2031.32
…
    ## Warning: Expected 1 pieces. Additional pieces discarded in 64 rows [1, 2, 3, 4,
    ## 5, 6, 7, 8, 9, 10, 11, 12, 13, 14, 15, 16, 17, 18, 19, 20, ...].

``` r
enrollment_data
```

    ## # A tibble: 64 × 23
    ##    acad.year year_id assoc_deg…¹ assoc…² assoc…³ bach_…⁴ bach_…⁵ bach_…⁶ bach_…⁷
    ##    <chr>     <chr>         <dbl>   <dbl>   <dbl>   <dbl>   <dbl>   <dbl>   <dbl>
    ##  1 1869-70   1869              0       0       0    9371       1    7993       1
    ##  2 1879-80   1879              0       0       0   12896       1   10411       1
    ##  3 1889-90   1889              0       0       0   15539       1   12857       1
    ##  4 1899-1900 1899              0       0       0   27410       1   22173       1
    ##  5 1909-10   1909              0       0       0   37199       1   28762       1
    ##  6 1919-20   1919              0       0       0   48622       1   31980       1
    ##  7 1929-30   1929              0       0       0  122484       1   73615       1
    ##  8 1939-40   1939              0       0       0  186500       1  109546       1
    ##  9 1949-50   1949              0       0       0  432058       1  328841       1
    ## 10 1959-60   1959              0       0       0  392440       1  254063       1
    ## # … with 54 more rows, 14 more variables: bach_deg_f <dbl>,
    ## #   bach_deg_f_assoc <dbl>, mast_deg_tot <dbl>, mast_deg_m <dbl>,
    ## #   mast_deg_f <dbl>, doct_deg_tot <dbl>, doct_deg_m <dbl>, doct_deg_f <dbl>,
    ## #   univ_deg_tot <dbl>, univ_deg_m <dbl>, univ_deg_f <dbl>,
    ## #   perc_bach_tot <dbl>, perc_mast_tot <dbl>, perc_doct_tot <dbl>, and
    ## #   abbreviated variable names ¹​assoc_deg_tot, ²​assoc_deg_m, ³​assoc_deg_f,
    ## #   ⁴​bach_deg_tot, ⁵​bach_deg_tot_assoc, ⁶​bach_deg_m, ⁷​bach_deg_m_assoc
…
6.  rename the variables so that they are consistent with our naming
    conventions

``` r
population_projections <- as_tibble(read.csv("/Users/kenjinchang/github/projected-impact-model/parent-datasets/population_projections.csv",skip=4)) %>%
  select(Year,Population) %>%
  mutate(population=as.numeric(Population)*1000) %>%
  filter(!row_number() %in% c(1,2,3,3,4,82,83,84,85,86,87,88,89)) %>%
  rename(year_id=Year) %>%
  select(!Population)
population_projections
```

    ## # A tibble: 77 × 2
    ##    year_id population
    ##    <chr>        <dbl>
    ##  1 2024     336482000
    ##  2 2025     338016000
    ##  3 2026     339513000
    ##  4 2027     340970000
    ##  5 2028     342385000
    ##  6 2029     343754000
    ##  7 2030     345074000
    ##  8 2031     346339000
    ##  9 2032     347545000
    ## 10 2033     348702000
    ## # … with 67 more rows
…
now, we use a `left_join` command to add all matching columns from the
`population_projections` tibble to the `enrollment_data` tibble:

``` r
cleaned_data <- left_join(enrollment_data,population_projections)
```

    ## Joining, by = "year_id"

``` r
cleaned_data
```

    ## # A tibble: 64 × 24
    ##    acad.year year_id assoc_deg…¹ assoc…² assoc…³ bach_…⁴ bach_…⁵ bach_…⁶ bach_…⁷
    ##    <chr>     <chr>         <dbl>   <dbl>   <dbl>   <dbl>   <dbl>   <dbl>   <dbl>
    ##  1 1869-70   1869              0       0       0    9371       1    7993       1
    ##  2 1879-80   1879              0       0       0   12896       1   10411       1
    ##  3 1889-90   1889              0       0       0   15539       1   12857       1
    ##  4 1899-1900 1899              0       0       0   27410       1   22173       1
    ##  5 1909-10   1909              0       0       0   37199       1   28762       1
    ##  6 1919-20   1919              0       0       0   48622       1   31980       1
    ##  7 1929-30   1929              0       0       0  122484       1   73615       1
    ##  8 1939-40   1939              0       0       0  186500       1  109546       1
    ##  9 1949-50   1949              0       0       0  432058       1  328841       1
    ## 10 1959-60   1959              0       0       0  392440       1  254063       1
    ## # … with 54 more rows, 15 more variables: bach_deg_f <dbl>,
    ## #   bach_deg_f_assoc <dbl>, mast_deg_tot <dbl>, mast_deg_m <dbl>,
    ## #   mast_deg_f <dbl>, doct_deg_tot <dbl>, doct_deg_m <dbl>, doct_deg_f <dbl>,
    ## #   univ_deg_tot <dbl>, univ_deg_m <dbl>, univ_deg_f <dbl>,
    ## #   perc_bach_tot <dbl>, perc_mast_tot <dbl>, perc_doct_tot <dbl>,
    ## #   population <dbl>, and abbreviated variable names ¹​assoc_deg_tot,
    ## #   ²​assoc_deg_m, ³​assoc_deg_f, ⁴​bach_deg_tot, ⁵​bach_deg_tot_assoc, …
…
with the 2020-2023 data now in appropriate format, we can join these
values to the cleaned data

``` r
cleaned_data <- left_join(cleaned_data,population_estimates_20202023) 
```

    ## Joining, by = c("year_id", "population")

``` r
cleaned_data
```

    ## # A tibble: 64 × 24
    ##    acad.year year_id assoc_deg…¹ assoc…² assoc…³ bach_…⁴ bach_…⁵ bach_…⁶ bach_…⁷
    ##    <chr>     <chr>         <dbl>   <dbl>   <dbl>   <dbl>   <dbl>   <dbl>   <dbl>
    ##  1 1869-70   1869              0       0       0    9371       1    7993       1
    ##  2 1879-80   1879              0       0       0   12896       1   10411       1
    ##  3 1889-90   1889              0       0       0   15539       1   12857       1
    ##  4 1899-1900 1899              0       0       0   27410       1   22173       1
    ##  5 1909-10   1909              0       0       0   37199       1   28762       1
    ##  6 1919-20   1919              0       0       0   48622       1   31980       1
    ##  7 1929-30   1929              0       0       0  122484       1   73615       1
    ##  8 1939-40   1939              0       0       0  186500       1  109546       1
    ##  9 1949-50   1949              0       0       0  432058       1  328841       1
    ## 10 1959-60   1959              0       0       0  392440       1  254063       1
    ## # … with 54 more rows, 15 more variables: bach_deg_f <dbl>,
    ## #   bach_deg_f_assoc <dbl>, mast_deg_tot <dbl>, mast_deg_m <dbl>,
    ## #   mast_deg_f <dbl>, doct_deg_tot <dbl>, doct_deg_m <dbl>, doct_deg_f <dbl>,
    ## #   univ_deg_tot <dbl>, univ_deg_m <dbl>, univ_deg_f <dbl>,
    ## #   perc_bach_tot <dbl>, perc_mast_tot <dbl>, perc_doct_tot <dbl>,
    ## #   population <dbl>, and abbreviated variable names ¹​assoc_deg_tot,
    ## #   ²​assoc_deg_m, ³​assoc_deg_f, ⁴​bach_deg_tot, ⁵​bach_deg_tot_assoc, …
…
